{
	"topPanelButtons": 
	[
		{
			"label": "Open"
		},

		{
			"label": "Copy"
		},

		{
			"label": "Move"
		},

		{
			"label": "Rename"
		},

		{
			"label": "Delete"
		}
	],

	"sortingButtons": 
	[
		{
			"label": "Sort By Name"
		},

		{
			"label": "Sort By Date"
		},

		{
			"label": "Sort By Extension"
		},

		{
			"label": "Sort By Size"
		}
	]
}